[
	"ant_man_helmet",
    "ant_man_chestplate",
    "ant_man_leggings",
    "ant_man_boots",
    "ant_man_tier2_helmet",
    "ant_man_tier2_chestplate",
    "ant_man_tier2_leggings",
    "ant_man_tier2_boots",
    "ant_man_tier3_helmet",
    "ant_man_tier3_chestplate",
    "ant_man_tier3_leggings",
    "ant_man_tier3_boots",
    "wasp_helmet",
    "wasp_chestplate",
    "wasp_leggings",
    "wasp_boots",
    "wasp_tier2_helmet",
    "wasp_tier2_chestplate",
    "wasp_tier2_leggings",
    "wasp_tier2_boots",
    "giant_man_helmet",
    "giant_man_chestplate",
    "giant_man_leggings",
    "giant_man_boots",
    "zombie_giant_man_helmet",
    "zombie_giant_man_chestplate",
    "zombie_giant_man_leggings",
    "zombie_giant_man_boots"
]
