{
  "type": "threecore:fluid_composing",
  "output": {
    "fluid": "pymtech:shrink_pym_particles",
    "amount": 500
  },
  "ingredients": [
    {
      "tag": "forge:dusts/intertium"
    },
    {
      "tag": "forge:dusts/palladium"
    },
    {
      "tag": "forge:dusts/redstone"
    }
  ],
  "fluid_input": {
    "fluid": "minecraft:water",
    "amount": 1000
  },
  "energy": 2500
}