{
  "type": "threecore:helmet_crafting",
  "pattern": [
    "AXXA",
    "GGGG",
    "PPPP",
    "IFFI"
  ],
  "key": {
    "X": {
      "tag": "forge:ingots/intertium"
    },
    "A": {
      "item": "pymtech:ant_antenna"
    },
    "P": {
      "tag": "forge:plates/iron"
    },
    "G": {
      "tag": "forge:glass_panes/red"
    },
    "F": {
      "item": "pymtech:air_filter"
    },
    "I": {
      "tag": "forge:ingots/iron"
    }
  },
  "tool": {
    "item": "pymtech:ant_man_helmet"
  },
  "consumes_tool": true,
  "result": {
    "item": "pymtech:wasp_helmet",
    "count": 1,
    "nbt": {
      "Damage": 0
    }
  }
}